{
  "development": {
    "username": "postgres",
    "password": "admin",
    "database": "game_db_development",
    "host": "127.0.0.1",
    "dialect": "postgres"
  },
  "test": {
    "username": "postgres",
    "password": "admin",
    "database": "game_db_staging",
    "host": "127.0.0.1",
    "dialect": "postgres"
  },
  "production": {
    "username": "postgres",
    "password": "admin",
    "database": "game_db_production",
    "host": "127.0.0.1",
    "dialect": "postgres"
  }
}
